<?xml version="1.0" encoding="UTF-8"?>
<svg width="14px" height="28px" viewBox="0 0 14 28" version="1.1" xmlns="http://www.w3.org/2000/svg" xmlns:xlink="http://www.w3.org/1999/xlink">
    <!-- Generator: Sketch 60.1 (88133) - https://sketch.com -->
    <title>Fill 205</title>
    <desc>Created with Sketch.</desc>
    <g id="Page-1" stroke="none" stroke-width="1" fill="none" fill-rule="evenodd">
        <g id="Artboard-1" transform="translate(-741.000000, -634.000000)" fill="#0F0F0F">
            <g id="Group-241" transform="translate(605.000000, 203.393000)">
                <g id="Group" transform="translate(136.615500, 431.250200)">
                    <path d="M12.526,8.728 L8.262,8.728 L8.262,5.93 C8.262,4.88 8.957,4.634 9.446,4.634 L12.455,4.634 L12.455,0.018 L8.311,-4.08562073e-14 C3.708,-4.08562073e-14 2.661,3.446 2.661,5.649 L2.661,8.728 L8.5442764e-13,8.728 L8.5442764e-13,13.488 L2.661,13.488 L2.661,26.955 L8.262,26.955 L8.262,13.488 L12.036,13.488 L12.526,8.728 Z" id="Fill-205"></path>
                </g>
            </g>
        </g>
    </g>
</svg>