<?xml version="1.0" encoding="UTF-8"?>
<svg width="29px" height="29px" viewBox="0 0 29 29" version="1.1" xmlns="http://www.w3.org/2000/svg" xmlns:xlink="http://www.w3.org/1999/xlink">
    <!-- Generator: Sketch 60.1 (88133) - https://sketch.com -->
    <title>Fill 209</title>
    <desc>Created with Sketch.</desc>
    <g id="Page-1" stroke="none" stroke-width="1" fill="none" fill-rule="evenodd">
        <g id="Artboard-1" transform="translate(-826.000000, -634.000000)" fill="#0F0F0F">
            <g id="Group-241" transform="translate(605.000000, 203.393000)">
                <g id="Group" transform="translate(136.615500, 431.250200)">
                    <path d="M110.1817,24.175 C110.1817,24.655 109.7977,25.038 109.3217,25.038 L88.6367,25.038 C88.1617,25.038 87.7777,24.655 87.7777,24.175 L87.7777,11.25 L91.2237,11.25 C90.7757,11.898 90.6207,13.101 90.6207,13.866 C90.6207,18.483 94.3867,22.236 99.0087,22.236 C103.6397,22.236 107.3997,18.483 107.3997,13.866 C107.3997,13.101 107.2927,11.915 106.7367,11.25 L110.1817,11.25 L110.1817,24.175 Z M99.0087,8.577 C101.9397,8.577 104.3147,10.949 104.3147,13.866 C104.3147,16.79 101.9397,19.158 99.0087,19.158 C96.0817,19.158 93.7107,16.79 93.7107,13.866 C93.7107,10.949 96.0817,8.577 99.0087,8.577 L99.0087,8.577 Z M105.0137,4.357 C105.0137,3.88 105.3977,3.494 105.8747,3.494 L108.4597,3.494 C108.9347,3.494 109.3217,3.88 109.3217,4.357 L109.3217,6.94 C109.3217,7.418 108.9347,7.803 108.4597,7.803 L105.8747,7.803 C105.3977,7.803 105.0137,7.418 105.0137,6.94 L105.0137,4.357 Z M109.4907,0.048 L88.4687,0.048 C86.6597,0.048 85.1927,1.512 85.1927,3.319 L85.1927,24.355 C85.1927,26.158 86.6597,27.623 88.4687,27.623 L109.4907,27.623 C111.3007,27.623 112.7697,26.158 112.7697,24.355 L112.7697,3.319 C112.7697,1.512 111.3007,0.048 109.4907,0.048 L109.4907,0.048 Z" id="Fill-209"></path>
                </g>
            </g>
        </g>
    </g>
</svg>